{
    "name": "TurretModule",
    "rootNamespace": "",
    "references": [
        "GUID:51eefc65ee0406842bafbbe50c962209",
        "GUID:8814e7e2349452c438e4ce9a50369ae1"
    ],
    "includePlatforms": [],
    "excludePlatforms": [],
    "allowUnsafeCode": false,
    "overrideReferences": false,
    "precompiledReferences": [],
    "autoReferenced": true,
    "defineConstraints": [],
    "versionDefines": [],
    "noEngineReferences": false
}